{
  "Get detail employees" : {
    "transaction" : "Get detail employees",
    "sampleCount" : 4,
    "errorCount" : 4,
    "errorPct" : 100.0,
    "meanResTime" : 343.0,
    "medianResTime" : 343.5,
    "minResTime" : 341.0,
    "maxResTime" : 344.0,
    "pct1ResTime" : 344.0,
    "pct2ResTime" : 344.0,
    "pct3ResTime" : 344.0,
    "throughput" : 0.4104669061056952,
    "receivedKBytesPerSec" : 0.22607747562852748,
    "sentKBytesPerSec" : 0.07094984607491021
  },
  "Post Register" : {
    "transaction" : "Post Register",
    "sampleCount" : 4,
    "errorCount" : 4,
    "errorPct" : 100.0,
    "meanResTime" : 861.5,
    "medianResTime" : 849.0,
    "minResTime" : 336.0,
    "maxResTime" : 1412.0,
    "pct1ResTime" : 1412.0,
    "pct2ResTime" : 1412.0,
    "pct3ResTime" : 1412.0,
    "throughput" : 0.3675119441381845,
    "receivedKBytesPerSec" : 0.3082937109518559,
    "sentKBytesPerSec" : 0.09439027471517825
  },
  "Get grades" : {
    "transaction" : "Get grades",
    "sampleCount" : 4,
    "errorCount" : 4,
    "errorPct" : 100.0,
    "meanResTime" : 340.0,
    "medianResTime" : 340.0,
    "minResTime" : 336.0,
    "maxResTime" : 344.0,
    "pct1ResTime" : 344.0,
    "pct2ResTime" : 344.0,
    "pct3ResTime" : 344.0,
    "throughput" : 0.40845501889104463,
    "receivedKBytesPerSec" : 0.23175035739814154,
    "sentKBytesPerSec" : 0.07738307975084245
  },
  "Put update employees" : {
    "transaction" : "Put update employees",
    "sampleCount" : 4,
    "errorCount" : 4,
    "errorPct" : 100.0,
    "meanResTime" : 342.25,
    "medianResTime" : 342.0,
    "minResTime" : 338.0,
    "maxResTime" : 347.0,
    "pct1ResTime" : 347.0,
    "pct2ResTime" : 347.0,
    "pct3ResTime" : 347.0,
    "throughput" : 0.4106776180698152,
    "receivedKBytesPerSec" : 0.2261935318275154,
    "sentKBytesPerSec" : 0.22298511293634496
  },
  "Get direktur" : {
    "transaction" : "Get direktur",
    "sampleCount" : 4,
    "errorCount" : 0,
    "errorPct" : 0.0,
    "meanResTime" : 404.75,
    "medianResTime" : 405.5,
    "minResTime" : 399.0,
    "maxResTime" : 409.0,
    "pct1ResTime" : 409.0,
    "pct2ResTime" : 409.0,
    "pct3ResTime" : 409.0,
    "throughput" : 0.4056383733901227,
    "receivedKBytesPerSec" : 0.8231606835006591,
    "sentKBytesPerSec" : 0.07803785113071696
  },
  "Get employees" : {
    "transaction" : "Get employees",
    "sampleCount" : 4,
    "errorCount" : 4,
    "errorPct" : 100.0,
    "meanResTime" : 351.25,
    "medianResTime" : 347.0,
    "minResTime" : 336.0,
    "maxResTime" : 375.0,
    "pct1ResTime" : 375.0,
    "pct2ResTime" : 375.0,
    "pct3ResTime" : 375.0,
    "throughput" : 0.4104669061056952,
    "receivedKBytesPerSec" : 0.2252757824525398,
    "sentKBytesPerSec" : 0.07014815289892253
  },
  "Post employees" : {
    "transaction" : "Post employees",
    "sampleCount" : 4,
    "errorCount" : 4,
    "errorPct" : 100.0,
    "meanResTime" : 346.5,
    "medianResTime" : 344.5,
    "minResTime" : 338.0,
    "maxResTime" : 359.0,
    "pct1ResTime" : 359.0,
    "pct2ResTime" : 359.0,
    "pct3ResTime" : 359.0,
    "throughput" : 0.4105933073290905,
    "receivedKBytesPerSec" : 0.2253451549989735,
    "sentKBytesPerSec" : 0.22334030486553066
  },
  "Get Dashboard" : {
    "transaction" : "Get Dashboard",
    "sampleCount" : 4,
    "errorCount" : 0,
    "errorPct" : 0.0,
    "meanResTime" : 345.5,
    "medianResTime" : 344.5,
    "minResTime" : 343.0,
    "maxResTime" : 350.0,
    "pct1ResTime" : 350.0,
    "pct2ResTime" : 350.0,
    "pct3ResTime" : 350.0,
    "throughput" : 0.407955124936257,
    "receivedKBytesPerSec" : 0.23066993880673126,
    "sentKBytesPerSec" : 0.07489801121876594
  },
  "Total" : {
    "transaction" : "Total",
    "sampleCount" : 52,
    "errorCount" : 44,
    "errorPct" : 84.61539,
    "meanResTime" : 390.5961538461538,
    "medianResTime" : 344.0,
    "minResTime" : 336.0,
    "maxResTime" : 1412.0,
    "pct1ResTime" : 405.7,
    "pct2ResTime" : 742.5999999999947,
    "pct3ResTime" : 1412.0,
    "throughput" : 3.4375619752759965,
    "receivedKBytesPerSec" : 2.4420841045812125,
    "sentKBytesPerSec" : 1.0011589376611356
  },
  "Delete employees id" : {
    "transaction" : "Delete employees id",
    "sampleCount" : 4,
    "errorCount" : 4,
    "errorPct" : 100.0,
    "meanResTime" : 359.5,
    "medianResTime" : 343.5,
    "minResTime" : 336.0,
    "maxResTime" : 415.0,
    "pct1ResTime" : 415.0,
    "pct2ResTime" : 415.0,
    "pct3ResTime" : 415.0,
    "throughput" : 0.407705636530425,
    "receivedKBytesPerSec" : 0.22455662012027316,
    "sentKBytesPerSec" : 0.22256586994190194
  },
  "Post change password" : {
    "transaction" : "Post change password",
    "sampleCount" : 4,
    "errorCount" : 4,
    "errorPct" : 100.0,
    "meanResTime" : 346.75,
    "medianResTime" : 346.5,
    "minResTime" : 345.0,
    "maxResTime" : 349.0,
    "pct1ResTime" : 349.0,
    "pct2ResTime" : 349.0,
    "pct3ResTime" : 349.0,
    "throughput" : 0.4078719282145406,
    "receivedKBytesPerSec" : 0.2772254512083206,
    "sentKBytesPerSec" : 0.12347685326807382
  },
  "Get level" : {
    "transaction" : "Get level",
    "sampleCount" : 4,
    "errorCount" : 4,
    "errorPct" : 100.0,
    "meanResTime" : 349.75,
    "medianResTime" : 341.0,
    "minResTime" : 338.0,
    "maxResTime" : 379.0,
    "pct1ResTime" : 379.0,
    "pct2ResTime" : 379.0,
    "pct3ResTime" : 379.0,
    "throughput" : 0.4086636697997548,
    "receivedKBytesPerSec" : 0.23865319779321617,
    "sentKBytesPerSec" : 0.07502809562729873
  },
  "Post Login" : {
    "transaction" : "Post Login",
    "sampleCount" : 4,
    "errorCount" : 4,
    "errorPct" : 100.0,
    "meanResTime" : 341.75,
    "medianResTime" : 341.5,
    "minResTime" : 338.0,
    "maxResTime" : 346.0,
    "pct1ResTime" : 346.0,
    "pct2ResTime" : 346.0,
    "pct3ResTime" : 346.0,
    "throughput" : 0.4077887654195127,
    "receivedKBytesPerSec" : 0.22062009379141606,
    "sentKBytesPerSec" : 0.10393834743602814
  },
  "Post forgot" : {
    "transaction" : "Post forgot",
    "sampleCount" : 4,
    "errorCount" : 4,
    "errorPct" : 100.0,
    "meanResTime" : 345.25,
    "medianResTime" : 345.5,
    "minResTime" : 341.0,
    "maxResTime" : 349.0,
    "pct1ResTime" : 349.0,
    "pct2ResTime" : 349.0,
    "pct3ResTime" : 349.0,
    "throughput" : 0.40774719673802245,
    "receivedKBytesPerSec" : 0.27714067278287463,
    "sentKBytesPerSec" : 0.1003440366972477
  }
}